xyz\duudl3\orion\server\ServerConnection$1.class
xyz\duudl3\orion\client\ClientConnection.class
xyz\duudl3\orion\Main$2.class
xyz\duudl3\orion\network\ConnectionHandler.class
xyz\duudl3\orion\util\TextFieldValidator.class
xyz\duudl3\orion\server\ServerConnection.class
xyz\duudl3\orion\Main$1.class
xyz\duudl3\orion\MainController.class
org\bitcoinj\kits\WalletAppKit$2.class
org\bitcoinj\kits\WalletAppKit.class
xyz\duudl3\orion\tx\BroadcastHelper.class
xyz\duudl3\orion\client\ClientConnection$1.class
xyz\duudl3\orion\network\NetworkConstants.class
xyz\duudl3\orion\tx\BroadcastHelper$1.class
org\bitcoinj\kits\WalletAppKit$1.class
xyz\duudl3\orion\Main.class
xyz\duudl3\orion\util\BitcoinAddressValidator.class
xyz\duudl3\orion\util\Constants.class
